^C:\USERS\ОЛЯ\SOURCE\REPOS\NUM_METHOD\NUM_METHOD\DEBUG\DLLMAIN.OBJ|C:\USERS\ОЛЯ\SOURCE\REPOS\NUM_METHOD\NUM_METHOD\DEBUG\NUM_METHOD.OBJ|C:\USERS\ОЛЯ\SOURCE\REPOS\NUM_METHOD\NUM_METHOD\DEBUG\STDAFX.OBJ
/OUT:"C:\USERS\ОЛЯ\SOURCE\REPOS\CONSOLEAPP1\MASTER\DEBUG\NUM_METHOD.DLL" /INCREMENTAL /NOLOGO KERNEL32.LIB USER32.LIB GDI32.LIB WINSPOOL.LIB COMDLG32.LIB ADVAPI32.LIB SHELL32.LIB OLE32.LIB OLEAUT32.LIB UUID.LIB ODBC32.LIB ODBCCP32.LIB /MANIFEST /MANIFESTUAC:"level='asInvoker' uiAccess='false'" /manifest:embed /DEBUG:FASTLINK /PDB:"C:\USERS\ОЛЯ\SOURCE\REPOS\CONSOLEAPP1\MASTER\DEBUG\NUM_METHOD.PDB" /SUBSYSTEM:WINDOWS /TLBID:1 /DYNAMICBASE /NXCOMPAT /IMPLIB:"C:\USERS\ОЛЯ\SOURCE\REPOS\CONSOLEAPP1\MASTER\DEBUG\NUM_METHOD.LIB" /MACHINE:X86 /DLL DEBUG\DLLMAIN.OBJDEBUG\NUM_METHOD.OBJDEBUG\STDAFX.OBJ
^F:\MASTER\MASTER\NUM_METHOD\NUM_METHOD\DEBUG\DLLMAIN.OBJ|F:\MASTER\MASTER\NUM_METHOD\NUM_METHOD\DEBUG\NUM_METHOD.OBJ|F:\MASTER\MASTER\NUM_METHOD\NUM_METHOD\DEBUG\STDAFX.OBJ
/OUT:"F:\MASTER\MASTER\DEBUG\NUM_METHOD.DLL" /INCREMENTAL /NOLOGO KERNEL32.LIB USER32.LIB GDI32.LIB WINSPOOL.LIB COMDLG32.LIB ADVAPI32.LIB SHELL32.LIB OLE32.LIB OLEAUT32.LIB UUID.LIB ODBC32.LIB ODBCCP32.LIB /MANIFEST /MANIFESTUAC:"level='asInvoker' uiAccess='false'" /manifest:embed /DEBUG:FASTLINK /PDB:"F:\MASTER\MASTER\DEBUG\NUM_METHOD.PDB" /SUBSYSTEM:WINDOWS /TLBID:1 /DYNAMICBASE /NXCOMPAT /IMPLIB:"F:\MASTER\MASTER\DEBUG\NUM_METHOD.LIB" /MACHINE:X86 /DLL DEBUG\DLLMAIN.OBJDEBUG\NUM_METHOD.OBJDEBUG\STDAFX.OBJ
