^C:\Users\Оля\source\repos\num_method\num_method\num_method.vcxproj
C:\Users\Оля\source\repos\num_method\Debug\num_method.lib
C:\Users\Оля\source\repos\num_method\Debug\num_method.exp
^C:\Users\Оля\source\repos\num_method\num_method\num_method.vcxproj
C:\Users\Оля\source\repos\num_method\Debug\num_method.lib
C:\Users\Оля\source\repos\num_method\Debug\num_method.exp
^C:\Users\Оля\source\repos\num_method\num_method\num_method.vcxproj
C:\Users\Оля\source\repos\num_method\Debug\num_method.lib
C:\Users\Оля\source\repos\num_method\Debug\num_method.exp
^C:\Users\Оля\source\repos\num_method\num_method\num_method.vcxproj
C:\Users\Оля\source\repos\num_method\Debug\num_method.lib
C:\Users\Оля\source\repos\num_method\Debug\num_method.exp
^C:\Users\Оля\source\repos\num_method\num_method\num_method.vcxproj
C:\Users\Оля\source\repos\num_method\Debug\num_method.lib
C:\Users\Оля\source\repos\num_method\Debug\num_method.exp
^C:\Users\Оля\source\repos\num_method\num_method\num_method.vcxproj
C:\Users\Оля\source\repos\num_method\Debug\num_method.lib
C:\Users\Оля\source\repos\num_method\Debug\num_method.exp
^C:\Users\Оля\source\repos\num_method\num_method\num_method.vcxproj
C:\Users\Оля\source\repos\num_method\Debug\num_method.lib
C:\Users\Оля\source\repos\num_method\Debug\num_method.exp
^C:\Users\Оля\source\repos\num_method\num_method\num_method.vcxproj
C:\Users\Оля\source\repos\num_method\Debug\num_method.lib
C:\Users\Оля\source\repos\num_method\Debug\num_method.exp
^C:\Users\Оля\source\repos\num_method\num_method\num_method.vcxproj
C:\Users\Оля\source\repos\num_method\Debug\num_method.lib
C:\Users\Оля\source\repos\num_method\Debug\num_method.exp
^C:\Users\Оля\source\repos\num_method\num_method\num_method.vcxproj
C:\Users\Оля\source\repos\ConsoleApp1\master\Debug\num_method.lib
C:\Users\Оля\source\repos\ConsoleApp1\master\Debug\num_method.exp
^C:\Users\Оля\source\repos\num_method\num_method\num_method.vcxproj
C:\Users\Оля\source\repos\ConsoleApp1\master\Debug\num_method.lib
C:\Users\Оля\source\repos\ConsoleApp1\master\Debug\num_method.exp
^C:\Users\Оля\source\repos\num_method\num_method\num_method.vcxproj
C:\Users\Оля\source\repos\ConsoleApp1\master\Debug\num_method.lib
C:\Users\Оля\source\repos\ConsoleApp1\master\Debug\num_method.exp
^C:\Users\Оля\source\repos\num_method\num_method\num_method.vcxproj
C:\Users\Оля\source\repos\ConsoleApp1\master\Debug\num_method.lib
C:\Users\Оля\source\repos\ConsoleApp1\master\Debug\num_method.exp
^C:\Users\Оля\source\repos\num_method\num_method\num_method.vcxproj
C:\Users\Оля\source\repos\ConsoleApp1\master\Debug\num_method.lib
C:\Users\Оля\source\repos\ConsoleApp1\master\Debug\num_method.exp
^F:\master\master\num_method\num_method\num_method.vcxproj
F:\master\master\Debug\num_method.lib
F:\master\master\Debug\num_method.exp
^F:\master\master\num_method\num_method\num_method.vcxproj
F:\master\master\Debug\num_method.lib
F:\master\master\Debug\num_method.exp
^F:\master\master\num_method\num_method\num_method.vcxproj
F:\master\master\Debug\num_method.lib
F:\master\master\Debug\num_method.exp
